ds202_lab3
…
9/25/2020

#install.packages('readxl')
#library('readx1')
dat <- readxl::read_xls('extract.xls')

## Warning in read_fun(path = enc2native(normalizePath(path)), sheet_i = sheet, :
## Expecting numeric in A64817 / R64817C1: got 'Source'

## Warning in read_fun(path = enc2native(normalizePath(path)), sheet_i = sheet, : Expecting numeric in B64817 / R64817C2: got 'Data collection: General Social Survey
## Case Selection: all cases'

dat

## # A tibble: 64,816 x 9
##    `Gss year for t~ `Respondent id ~ `Marital status` `Highest year o~
##               <dbl>            <dbl> <chr>            <chr>           
##  1             1972                1 Never married    16              
##  2             1972                2 Married          10              
##  3             1972                3 Married          12              
##  4             1972                4 Married          17              
##  5             1972                5 Married          12              
##  6             1972                6 Never married    14              
##  7             1972                7 Divorced         13              
##  8             1972                8 Never married    16              
##  9             1972                9 Never married    12              
## 10             1972               10 Married          12              
## # ... with 64,806 more rows, and 5 more variables: `Respondents sex` <chr>,
## #   `Respondents income` <chr>, `Political party affiliation` <chr>, `General
## #   happiness` <chr>, `Ballot used for interview` <chr>
…
statusHappy3 <- happinessDat %>% 
  select(Affiliation, happy, MS) %>%
  group_by(Affiliation, happy, MS) %>%
  summarise(number = n()) 

## `summarise()` regrouping output by 'Affiliation', 'happy' (override with `.groups` argument)

sh1 <- statusHappy3 %>% arrange(desc(number))
sh1

## # A tibble: 113 x 4
## # Groups:   Affiliation, happy [21]
##    Affiliation        happy MS            number
##    <chr>              <chr> <chr>          <int>
##  1 Not str democrat   Happy Married         5974
##  2 Not str republican Happy Married         5254
##  3 Strong democrat    Happy Married         4146
##  4 Independent        Happy Married         3933
##  5 Strong republican  Happy Married         3407
##  6 Ind,near dem       Happy Married         3203
##  7 Ind,near rep       Happy Married         2826
##  8 Not str democrat   Happy Never married   2261
##  9 Independent        Happy Never married   1822
## 10 Ind,near dem       Happy Never married   1670
## # ... with 103 more rows

statusHappy3

## # A tibble: 113 x 4
## # Groups:   Affiliation, happy [21]
##    Affiliation  happy     MS            number
##    <chr>        <chr>     <chr>          <int>
##  1 Don't know   Happy     Married            6
##  2 Don't know   Happy     Never married      1
##  3 Don't know   Happy     Widowed            1
##  4 Don't know   Not happy Never married      1
##  5 Don't know   Not happy Separated          1
##  6 Don't know   Not happy Widowed            1
##  7 Ind,near dem Happy     Divorced         803
##  8 Ind,near dem Happy     Married         3203
##  9 Ind,near dem Happy     Never married   1670
## 10 Ind,near dem Happy     No answer          1
## # ... with 103 more rows
…
